(module C_SMD_SilverMica_P12mm (layer F.Cu) (tedit 5E1B59FC)
  (attr smd)
  (fp_text reference REF** (at 5.08 -3.81) (layer F.SilkS)
    (effects (font (size 1 1) (thickness 0.15)))
  )
  (fp_text value C_SMD_SilverMica_P12mm (at 5.715 3.81) (layer F.Fab)
    (effects (font (size 1 1) (thickness 0.15)))
  )
  (fp_line (start -1.905 -2.54) (end -1.905 2.54) (layer F.SilkS) (width 0.15))
  (fp_line (start -1.905 2.54) (end 13.97 2.54) (layer F.SilkS) (width 0.15))
  (fp_line (start 13.97 2.54) (end 13.97 -2.54) (layer F.SilkS) (width 0.15))
  (fp_line (start 13.97 -2.54) (end -1.905 -2.54) (layer F.SilkS) (width 0.15))
  (fp_line (start -2.54 -2.54) (end -2.54 2.54) (layer F.CrtYd) (width 0.12))
  (fp_line (start -2.54 2.54) (end 14.605 2.54) (layer F.CrtYd) (width 0.12))
  (fp_line (start 14.605 2.54) (end 14.605 -2.54) (layer F.CrtYd) (width 0.12))
  (fp_line (start 14.605 -2.54) (end -2.54 -2.54) (layer F.CrtYd) (width 0.12))
  (pad 1 smd oval (at 0 0) (size 2.54 1.524) (layers F.Cu F.Paste F.Mask))
  (pad 2 smd oval (at 12.065 0) (size 2.54 1.524) (layers F.Cu F.Paste F.Mask))
)
