(module C_SMD_Axial_L30_D9_P35mm_H (layer F.Cu) (tedit 5E1B5C6F)
  (attr smd)
  (fp_text reference REF** (at 12.7 -6.35) (layer F.SilkS)
    (effects (font (size 1 1) (thickness 0.15)))
  )
  (fp_text value C_SMD_Axial_L30_D9_P35mm_H (at 12.7 6.35) (layer F.Fab)
    (effects (font (size 1 1) (thickness 0.15)))
  )
  (fp_line (start 2.54 -5.08) (end 2.54 5.08) (layer F.SilkS) (width 0.15))
  (fp_line (start 2.54 5.08) (end 32.385 5.08) (layer F.SilkS) (width 0.15))
  (fp_line (start 32.385 5.08) (end 32.385 -5.08) (layer F.SilkS) (width 0.15))
  (fp_line (start 32.385 -5.08) (end 2.54 -5.08) (layer F.SilkS) (width 0.15))
  (fp_line (start 32.385 0) (end 33.655 0) (layer F.SilkS) (width 0.15))
  (fp_line (start 2.54 0) (end 1.27 0) (layer F.SilkS) (width 0.15))
  (fp_line (start -1.27 -5.715) (end -1.27 5.715) (layer F.CrtYd) (width 0.12))
  (fp_line (start -1.27 5.715) (end 36.195 5.715) (layer F.CrtYd) (width 0.12))
  (fp_line (start 36.195 5.715) (end 36.195 -5.715) (layer F.CrtYd) (width 0.12))
  (fp_line (start 36.195 -5.715) (end -1.27 -5.715) (layer F.CrtYd) (width 0.12))
  (pad 1 smd oval (at 0 0) (size 2.54 1.524) (layers F.Cu F.Paste F.Mask))
  (pad 2 smd oval (at 34.925 0) (size 2.54 1.524) (layers F.Cu F.Paste F.Mask))
)
