(module C_SMD_Axial_L30_D13_P35mm_H (layer F.Cu) (tedit 5E1B5E13)
  (attr smd)
  (fp_text reference REF** (at 18.415 -4.445) (layer F.SilkS)
    (effects (font (size 1 1) (thickness 0.15)))
  )
  (fp_text value C_SMD_Axial_L30_D13_P35mm_H (at 17.78 8.89) (layer F.Fab)
    (effects (font (size 1 1) (thickness 0.15)))
  )
  (fp_line (start 2.54 -6.985) (end 2.54 6.985) (layer F.SilkS) (width 0.15))
  (fp_line (start 2.54 6.985) (end 32.385 6.985) (layer F.SilkS) (width 0.15))
  (fp_line (start 32.385 6.985) (end 32.385 -6.985) (layer F.SilkS) (width 0.15))
  (fp_line (start 32.385 -6.985) (end 2.54 -6.985) (layer F.SilkS) (width 0.15))
  (fp_line (start 32.385 0) (end 33.655 0) (layer F.SilkS) (width 0.15))
  (fp_line (start 2.54 0) (end 1.27 0) (layer F.SilkS) (width 0.15))
  (fp_line (start -1.27 -7.62) (end -1.27 7.62) (layer F.CrtYd) (width 0.12))
  (fp_line (start -1.27 7.62) (end 36.195 7.62) (layer F.CrtYd) (width 0.12))
  (fp_line (start 36.195 7.62) (end 36.195 -7.62) (layer F.CrtYd) (width 0.12))
  (fp_line (start 36.195 -7.62) (end -1.27 -7.62) (layer F.CrtYd) (width 0.12))
  (pad 1 smd oval (at 0 0) (size 2.54 1.524) (layers F.Cu F.Paste F.Mask))
  (pad 2 smd oval (at 34.925 0) (size 2.54 1.524) (layers F.Cu F.Paste F.Mask))
)
