(module C_SMD_Axial_L19_D10_P22mm_H (layer F.Cu) (tedit 5E1E535F)
  (attr smd)
  (fp_text reference REF** (at 11.43 -6.985) (layer F.SilkS)
    (effects (font (size 1 1) (thickness 0.15)))
  )
  (fp_text value C_SMD_Axial_L19_D10_P22mm_H (at 11.43 6.985) (layer F.Fab)
    (effects (font (size 1 1) (thickness 0.15)))
  )
  (fp_line (start 1.905 -5.08) (end 1.905 5.08) (layer F.SilkS) (width 0.15))
  (fp_line (start 1.905 5.08) (end 20.32 5.08) (layer F.SilkS) (width 0.15))
  (fp_line (start 20.32 5.08) (end 20.32 -5.08) (layer F.SilkS) (width 0.15))
  (fp_line (start 20.32 -5.08) (end 1.905 -5.08) (layer F.SilkS) (width 0.15))
  (fp_line (start 20.32 0) (end 20.955 0) (layer F.SilkS) (width 0.15))
  (fp_line (start 1.905 0) (end 1.27 0) (layer F.SilkS) (width 0.15))
  (fp_line (start -1.27 -5.715) (end -1.27 5.715) (layer F.CrtYd) (width 0.12))
  (fp_line (start -1.27 5.715) (end 23.495 5.715) (layer F.CrtYd) (width 0.12))
  (fp_line (start 23.495 5.715) (end 23.495 -5.715) (layer F.CrtYd) (width 0.12))
  (fp_line (start 23.495 -5.715) (end -1.27 -5.715) (layer F.CrtYd) (width 0.12))
  (pad 1 smd oval (at 0 0) (size 2.54 1.524) (layers F.Cu F.Paste F.Mask))
  (pad 2 smd oval (at 22.225 0) (size 2.54 1.524) (layers F.Cu F.Paste F.Mask))
)
